<?xml version="1.0" encoding="UTF-8" standalone="no"?>
<!-- Creator: CorelDRAW 2018 (64 Bit) -->

<svg
   xmlns:dc="http://purl.org/dc/elements/1.1/"
   xmlns:cc="http://creativecommons.org/ns#"
   xmlns:rdf="http://www.w3.org/1999/02/22-rdf-syntax-ns#"
   xmlns:svg="http://www.w3.org/2000/svg"
   xmlns="http://www.w3.org/2000/svg"
   xmlns:sodipodi="http://sodipodi.sourceforge.net/DTD/sodipodi-0.dtd"
   xmlns:inkscape="http://www.inkscape.org/namespaces/inkscape"
   xml:space="preserve"
   width="133.33292mm"
   height="137.92088mm"
   version="1.1"
   style="clip-rule:evenodd;fill-rule:evenodd;image-rendering:optimizeQuality;shape-rendering:geometricPrecision;text-rendering:geometricPrecision"
   viewBox="0 0 13333.292 13792.088"
   id="svg49"
   sodipodi:docname="Clementiina SVG.svg"
   inkscape:version="0.92.3 (2405546, 2018-03-11)"><metadata
   id="metadata53"><rdf:RDF><cc:Work
       rdf:about=""><dc:format>image/svg+xml</dc:format><dc:type
         rdf:resource="http://purl.org/dc/dcmitype/StillImage" /><dc:title></dc:title></cc:Work></rdf:RDF></metadata><sodipodi:namedview
   pagecolor="#ffffff"
   bordercolor="#666666"
   borderopacity="1"
   objecttolerance="10"
   gridtolerance="10"
   guidetolerance="10"
   inkscape:pageopacity="0"
   inkscape:pageshadow="2"
   inkscape:window-width="1313"
   inkscape:window-height="713"
   id="namedview51"
   showgrid="false"
   showguides="true"
   showborder="false"
   inkscape:zoom="0.10512601"
   inkscape:cx="1571.5993"
   inkscape:cy="420.43165"
   inkscape:window-x="53"
   inkscape:window-y="27"
   inkscape:window-maximized="1"
   inkscape:current-layer="svg49"
   borderlayer="false" />
 <defs
   id="defs4">
  <style
   type="text/css"
   id="style2">
   <![CDATA[
    .fil0 {fill:#FEFEFE}
    .fil8 {fill:#FEFEFE}
    .fil1 {fill:#FFCC29}
    .fil7 {fill:#F58634}
    .fil2 {fill:#ED2F59}
    .fil4 {fill:#CA3438}
    .fil6 {fill:#A8CF45}
    .fil5 {fill:#465FA9}
    .fil3 {fill:#00AFEF}
    .fil10 {fill:#0271C2}
    .fil11 {fill:#0271C2}
    .fil9 {fill:#0271C2;fill-rule:nonzero}
   ]]>
  </style>
 </defs>
 <g
   id="Capa_x0020_1"
   transform="translate(-8183.5257,-3603.9557)">
  <metadata
   id="CorelCorpID_0Corel-Layer" />
  <g
   id="_1990880746720">
   <g
   id="g9">
    <path
   class="fil0"
   d="m 12732.25,16696.99 c 5.98,-15.08 16.16,-28.18 30.16,-38.56 23.65,-17.54 51.6,-22.37 79.77,-13.81 1446.72,439.8 2930.7,522.84 4366.07,1.52 28.46,-10.34 57.57,-6.49 82.37,10.88 24.8,17.38 38.35,43.43 38.35,73.71 v 220.48 c 0,39.58 -24.37,73.21 -61.99,85.53 -1491.05,488.36 -2986,473.99 -4478.9,-13.2 -37.66,-12.29 -62.08,-45.94 -62.08,-85.56 v -72.79 c -6.21,15.6 -16.91,29.08 -31.62,39.51 -24.56,17.42 -53.44,21.48 -81.86,11.52 -1105.93,-387.92 -2068.04,-1114.59 -2826.47,-1999.57 -298.93,-348.82 -572.95,-729.14 -801.36,-1128 -88.38,-154.33 -171.05,-313.32 -242.65,-476.17 -52.95,-120.41 -102.83,-248.12 -135.58,-375.69 -7.13,-27.76 -1.6,-54.64 15.9,-77.34 17.5,-22.7 42.1,-34.88 70.76,-35.04 l 205.52,-1.17 c 37.61,-0.21 69.82,21.36 83.93,56.22 117.98,291.37 277.83,581.57 442.83,848.6 229.76,371.83 491.79,727.61 778.99,1057.08 664.11,761.83 1497.18,1418.06 2466.04,1738.04 37.5,12.38 61.76,45.93 61.78,85.42 z m -0.02,-12394.02 -0.02,48.8 c -0.02,39.49 -24.28,73.04 -61.78,85.42 -968.86,319.98 -1801.93,976.21 -2466.04,1738.04 -287.2,329.47 -549.23,685.25 -778.99,1057.08 -165,267.03 -324.85,557.23 -442.83,848.6 -14.11,34.86 -46.32,56.43 -83.93,56.22 l -205.52,-1.17 c -28.66,-0.16 -53.26,-12.34 -70.76,-35.04 -17.5,-22.7 -23.03,-49.58 -15.9,-77.34 32.75,-127.57 82.63,-255.28 135.58,-375.69 71.6,-162.85 154.27,-321.84 242.65,-476.17 228.41,-398.86 502.43,-779.18 801.36,-1128 758.43,-884.98 1720.54,-1611.65 2826.47,-1999.57 28.42,-9.96 57.3,-5.9 81.86,11.52 14.71,10.43 25.41,23.91 31.62,39.51 v -33.16 c 0,-39.62 24.42,-73.27 62.08,-85.56 1492.9,-487.19 2987.85,-501.56 4478.9,-13.2 37.62,12.32 61.99,45.95 61.99,85.53 v 220.48 c 0,30.28 -13.55,56.33 -38.35,73.71 -24.8,17.37 -53.91,21.22 -82.37,10.88 -1435.37,-521.32 -2919.35,-438.28 -4366.07,1.52 -28.17,8.56 -56.12,3.73 -79.77,-13.81 -14.01,-10.39 -24.2,-23.51 -30.18,-38.6 z m 4775.5,-258.82 c 1105.93,387.92 2068.04,1114.59 2826.47,1999.57 298.93,348.82 572.95,729.14 801.36,1128 88.38,154.33 171.05,313.32 242.65,476.17 52.95,120.41 102.83,248.12 135.58,375.69 7.13,27.76 1.6,54.64 -15.9,77.34 -17.5,22.7 -42.1,34.88 -70.76,35.04 l -205.52,1.17 c -37.61,0.21 -69.82,-21.36 -83.93,-56.22 -117.98,-291.37 -277.83,-581.57 -442.83,-848.6 -229.76,-371.83 -491.79,-727.61 -778.99,-1057.08 -664.11,-761.83 -1497.18,-1418.06 -2466.04,-1738.04 -37.5,-12.38 -61.76,-45.93 -61.78,-85.42 l -0.1,-222.65 c -0.01,-30.11 13.37,-56.03 37.93,-73.45 24.56,-17.42 53.44,-21.48 81.86,-11.52 z m -119.79,12803.76 0.1,-222.65 c 0.02,-39.49 24.28,-73.04 61.78,-85.42 968.86,-319.98 1801.93,-976.21 2466.04,-1738.04 287.2,-329.47 549.23,-685.25 778.99,-1057.08 165,-267.03 324.85,-557.23 442.83,-848.6 14.11,-34.86 46.32,-56.43 83.93,-56.22 l 205.52,1.17 c 28.66,0.16 53.26,12.34 70.76,35.04 17.5,22.7 23.03,49.58 15.9,77.34 -32.75,127.57 -82.63,255.28 -135.58,375.69 -71.6,162.85 -154.27,321.84 -242.65,476.17 -228.41,398.86 -502.43,779.18 -801.36,1128 -758.43,884.98 -1720.54,1611.65 -2826.47,1999.57 -28.42,9.96 -57.3,5.9 -81.86,-11.52 -24.56,-17.42 -37.94,-43.34 -37.93,-73.45 z M 8556.03,12744.53 c -487.19,-1492.9 -501.56,-2987.85 -13.2,-4478.9 12.32,-37.62 45.95,-61.99 85.53,-61.99 h 220.48 c 30.28,0 56.33,13.55 73.71,38.35 17.37,24.8 21.22,53.91 10.88,82.37 -521.32,1435.37 -438.28,2919.35 1.52,4366.07 8.56,28.17 3.73,56.12 -13.81,79.77 -17.53,23.65 -42.86,36.41 -72.3,36.41 h -207.25 c -39.62,0 -73.27,-24.42 -85.56,-62.08 z"
   id="path7"
   inkscape:connector-curvature="0"
   style="fill:#fefefe" />
   </g>
   <g
   id="g25">
    <path
   class="fil1"
   d="m 12816,4062.02 c 1510.05,-492.79 2983.48,-484.7 4422.97,-13.23 v 220.48 c -1355.66,-492.37 -2832.1,-483.62 -4422.97,0 z"
   id="path11"
   inkscape:connector-curvature="0"
   style="fill:#ffcc29" />
    <path
   class="fil2"
   d="m 17477.94,4129.08 c 2373.18,832.41 3745.05,3123.85 3948.68,3916.88 l -205.52,1.17 c -364.92,-901.22 -1687.12,-3016.41 -3743.06,-3695.4 z"
   id="path13"
   inkscape:connector-curvature="0"
   style="fill:#ed2f59" />
    <path
   class="fil3"
   d="M 12642.31,4129.08 C 10269.13,4961.49 8897.26,7252.93 8693.63,8045.96 l 205.52,1.17 c 364.92,-901.22 1687.12,-3016.41 3743.06,-3695.4 z"
   id="path15"
   inkscape:connector-curvature="0"
   style="fill:#00afef" />
    <path
   class="fil4"
   d="M 12642.31,16831.29 C 10269.13,15998.88 8897.26,13707.44 8693.63,12914.41 l 205.52,-1.17 c 364.92,901.22 1687.12,3016.41 3743.06,3695.4 z"
   id="path17"
   inkscape:connector-curvature="0"
   style="fill:#ca3438" />
    <path
   class="fil5"
   d="m 17477.94,16847.95 c 2373.18,-832.41 3745.05,-3123.85 3948.68,-3916.88 l -205.52,-1.17 c -364.92,901.22 -1687.12,3016.41 -3743.06,3695.4 z"
   id="path19"
   inkscape:connector-curvature="0"
   style="fill:#465fa9" />
    <path
   class="fil6"
   d="m 12816,16937.98 c 1510.05,492.79 2983.48,484.7 4422.97,13.23 v -220.48 c -1355.66,492.37 -2832.1,483.62 -4422.97,0 z"
   id="path21"
   inkscape:connector-curvature="0"
   style="fill:#a8cf45" />
    <path
   class="fil7"
   d="M 8641.59,12716.61 C 8148.8,11206.56 8156.89,9733.13 8628.36,8293.64 h 220.48 c -492.37,1355.66 -483.62,2832.1 0,4422.97 z"
   id="path23"
   inkscape:connector-curvature="0"
   style="fill:#f58634" />
   </g>
   <g
   id="g29">
    <path
   class="fil8"
   d="m 18010.93,7002.72 c -42.67,64.95 -99.05,121.11 -162.44,165.85 l -4.05,2.86 -4.23,2.59 c -83,50.73 -179.48,71.46 -276.01,71.46 -159.24,0 -303.81,-86.38 -419.51,-189.06 -134.44,-119.32 -285.56,-225.9 -436.03,-323.88 -206.32,-134.35 -440.08,-237.73 -670.74,-322.26 -306.75,-112.42 -662.13,-145 -986.75,-145 -445.92,0 -876.54,88.71 -1278.04,284.42 -396.08,193.08 -725.24,472.9 -994.16,820.76 -305.31,394.94 -513.69,856.08 -655.51,1332.63 -172.92,581.07 -238.1,1196.5 -238.1,1801.27 0,609.36 65.57,1230.5 249.04,1813.58 149.16,474.01 363.34,939.06 672.7,1330.72 271.24,343.4 600.96,624.18 993.36,819.66 385.13,191.87 794.19,283.85 1224.53,283.85 245.89,0 493.77,-16.33 736.16,-58.83 200.69,-35.18 400.84,-89.33 587.22,-172.48 l 2.54,-1.11 c 181.08,-76.82 349.26,-175.59 505.51,-295.15 171.91,-131.55 331.68,-279.55 478.03,-438.97 l 5.67,-6.17 6.31,-5.5 c 101.34,-88.27 225.67,-156.15 363.2,-156.15 126.7,0 238.69,57.31 327.12,145.73 l 2.17,2.17 700.89,760.69 -75.96,100.01 c -415.38,546.87 -930.06,981.12 -1544.48,1288.32 -676.36,338.18 -1437.09,457.94 -2187.45,457.94 -706.59,0 -1394.91,-130.83 -2036.01,-433.17 -608.6,-287.02 -1130.58,-691.71 -1560.9,-1208.99 -454.63,-546.49 -775.03,-1181.28 -990.35,-1856.61 -244.17,-765.81 -344.48,-1567.37 -344.48,-2369.54 0,-803.84 106.21,-1606.6 365.74,-2369.38 231,-678.91 567.58,-1314.26 1034.29,-1861.11 445.23,-521.69 979.32,-925.35 1601.27,-1213.79 649.04,-301 1345.03,-432.76 2058.42,-432.76 677.23,0 1351.57,109.97 1968.58,398.02 561.63,262.19 1059.04,620.65 1480.49,1075.22 l 83.2,89.73 z"
   id="path27"
   inkscape:connector-curvature="0"
   style="fill:#fefefe" />
   </g>
   <path
   class="fil9"
   d="m 17709.63,13767.81 c 78.53,0 154.16,34.91 221.06,101.8 l 613.71,666.07 c -404.3,532.28 -901.67,948.21 -1492.11,1244.89 -590.45,293.76 -1297.24,442.1 -2120.37,442.1 -727.15,0 -1384.5,-139.61 -1972.03,-418.84 -590.45,-276.31 -1090.73,-668.97 -1509.57,-1169.25 -415.93,-503.19 -738.78,-1105.27 -962.75,-1806.25 -223.96,-703.88 -337.39,-1477.57 -337.39,-2323.97 0,-846.4 119.25,-1620.09 357.75,-2321.06 238.51,-700.98 575.91,-1305.96 1006.38,-1812.06 433.38,-506.1 948.2,-895.85 1550.28,-1175.08 602.09,-279.22 1268.16,-418.84 1995.31,-418.84 721.33,0 1355.4,127.98 1905.13,383.94 546.82,255.96 1026.74,602.08 1433.94,1041.28 l -511.91,715.52 c -32,49.44 -75.63,93.07 -125.07,127.97 -52.36,32 -119.26,49.45 -197.79,49.45 -95.98,0 -203.6,-49.45 -319.94,-151.25 -116.35,-104.71 -267.6,-215.23 -453.75,-337.39 -189.06,-122.17 -421.74,-235.6 -700.97,-337.4 -276.32,-101.8 -625.35,-154.16 -1038.37,-154.16 -488.65,0 -936.57,101.8 -1343.77,299.59 -404.3,197.78 -753.33,485.73 -1047.1,863.85 -290.86,378.12 -520.64,837.68 -680.61,1381.59 -162.89,541 -244.33,1157.62 -244.33,1844.05 0,692.25 84.35,1311.78 255.96,1858.6 171.61,543.91 404.3,1006.37 698.07,1378.68 296.67,375.21 645.7,663.16 1044.18,860.94 401.39,200.7 831.86,299.59 1291.42,299.59 285.05,0 538.09,-20.36 762.06,-61.08 223.96,-37.81 433.38,-98.9 622.44,-183.25 191.96,-81.44 369.39,-186.15 538.09,-314.12 165.79,-127.98 334.49,-279.23 497.37,-456.65 90.17,-78.54 180.33,-119.26 264.68,-119.26 z"
   id="path31"
   inkscape:connector-curvature="0"
   style="fill:#0271c2;fill-rule:nonzero" />
   <g
   id="g35">
    <path
   class="fil0"
   d="m 16865.61,7979.62 h 209.15 c 50.44,0 93.85,19.55 127.29,57.31 33.43,37.77 47.57,83.23 41.46,133.3 l -566.21,4635.5 c -10.48,85.75 -82.36,149.39 -168.75,149.39 H 15333.8 c -50.34,0 -93.67,-19.47 -127.1,-57.1 -33.43,-37.63 -47.65,-82.95 -41.71,-132.94 l 550.34,-4635.5 c 10.2,-85.99 82.22,-149.96 168.81,-149.96 h 330.65 c -185.76,-110.96 -310.19,-314.01 -310.19,-546.06 0,-350.96 284.64,-635.6 635.6,-635.6 350.96,0 635.61,284.64 635.61,635.6 0,232.05 -124.44,435.1 -310.2,546.06 z m -2679.83,0 h 222.56 c 50.44,0 93.85,19.55 127.29,57.31 33.43,37.77 47.57,83.23 41.46,133.3 l -566.21,4635.5 c -10.48,85.75 -82.36,149.39 -168.75,149.39 h -1174.75 c -50.34,0 -93.67,-19.47 -127.1,-57.1 -33.43,-37.63 -47.65,-82.95 -41.71,-132.94 l 550.34,-4635.5 c 10.2,-85.99 82.22,-149.96 168.81,-149.96 h 317.24 c -185.76,-110.96 -310.19,-314.01 -310.19,-546.06 0,-350.96 284.64,-635.6 635.6,-635.6 350.96,0 635.6,284.64 635.6,635.6 0,232.05 -124.43,435.1 -310.19,546.06 z"
   id="path33"
   inkscape:connector-curvature="0"
   style="fill:#fefefe" />
   </g>
   <g
   id="g45">
    <path
   class="fil10"
   d="m 16540.2,6967.96 c 257.13,0 465.61,208.47 465.61,465.6 0,257.13 -208.48,465.6 -465.61,465.6 -257.13,0 -465.6,-208.47 -465.6,-465.6 0,-257.13 208.47,-465.6 465.6,-465.6 z"
   id="path37"
   inkscape:connector-curvature="0"
   style="fill:#0271c2" />
    <path
   class="fil10"
   d="m 13860.37,6967.96 c 257.13,0 465.6,208.47 465.6,465.6 0,257.13 -208.47,465.6 -465.6,465.6 -257.13,0 -465.6,-208.47 -465.6,-465.6 0,-257.13 208.47,-465.6 465.6,-465.6 z"
   id="path39"
   inkscape:connector-curvature="0"
   style="fill:#0271c2" />
    <polygon
   class="fil11"
   points="13842.13,12785.12 12667.38,12785.12 13217.72,8149.62 14408.34,8149.62 "
   id="polygon41"
   style="fill:#0271c2" />
    <polygon
   class="fil11"
   points="16508.55,12785.12 15333.8,12785.12 15884.14,8149.62 17074.76,8149.62 "
   id="polygon43"
   style="fill:#0271c2" />
   </g>
  </g>
 </g>
</svg>